[api-updater (non-obsolete-error-filter)] 2021-11-20 2:29:27 PM : Starting C:/Program Files/Unity/Hub/Editor/2020.3.13f1/Editor/Data/Tools/ScriptUpdater/APIUpdater.NonObsoleteApiUpdaterDetector.exe
[api-updater (non-obsolete-error-filter)] 
----------------------------------
jit/startup time      : 606.8231ms
moved types parse time: 45ms
candidates parse time : 0ms
C# parse time         : 487ms
candidates check time : 44ms
console write time    : 0ms

[api-updater (non-obsolete-error-filter)] 2021-11-20 2:32:57 PM : Starting C:/Program Files/Unity/Hub/Editor/2020.3.13f1/Editor/Data/Tools/ScriptUpdater/APIUpdater.NonObsoleteApiUpdaterDetector.exe
[api-updater (non-obsolete-error-filter)] 
----------------------------------
jit/startup time      : 102.1758ms
moved types parse time: 42ms
candidates parse time : 1ms
C# parse time         : 167ms
candidates check time : 46ms
console write time    : 0ms

[api-updater (non-obsolete-error-filter)] 2021-11-20 2:34:16 PM : Starting C:/Program Files/Unity/Hub/Editor/2020.3.13f1/Editor/Data/Tools/ScriptUpdater/APIUpdater.NonObsoleteApiUpdaterDetector.exe
[api-updater (non-obsolete-error-filter)] 
----------------------------------
jit/startup time      : 79.7815ms
moved types parse time: 90ms
candidates parse time : 1ms
C# parse time         : 170ms
candidates check time : 45ms
console write time    : 0ms

[api-updater (non-obsolete-error-filter)] 2021-11-20 2:34:59 PM : Starting C:/Program Files/Unity/Hub/Editor/2020.3.13f1/Editor/Data/Tools/ScriptUpdater/APIUpdater.NonObsoleteApiUpdaterDetector.exe
[api-updater (non-obsolete-error-filter)] 
----------------------------------
jit/startup time      : 78.7662ms
moved types parse time: 54ms
candidates parse time : 1ms
C# parse time         : 160ms
candidates check time : 44ms
console write time    : 0ms

[api-updater (non-obsolete-error-filter)] 2021-11-20 2:35:22 PM : Starting C:/Program Files/Unity/Hub/Editor/2020.3.13f1/Editor/Data/Tools/ScriptUpdater/APIUpdater.NonObsoleteApiUpdaterDetector.exe
[api-updater (non-obsolete-error-filter)] 
----------------------------------
jit/startup time      : 76.2014ms
moved types parse time: 48ms
candidates parse time : 0ms
C# parse time         : 162ms
candidates check time : 44ms
console write time    : 0ms

[api-updater (non-obsolete-error-filter)] 2021-11-20 2:35:52 PM : Starting C:/Program Files/Unity/Hub/Editor/2020.3.13f1/Editor/Data/Tools/ScriptUpdater/APIUpdater.NonObsoleteApiUpdaterDetector.exe
[api-updater (non-obsolete-error-filter)] 
----------------------------------
jit/startup time      : 69.8133ms
moved types parse time: 47ms
candidates parse time : 1ms
C# parse time         : 155ms
candidates check time : 40ms
console write time    : 0ms

[api-updater (non-obsolete-error-filter)] 2021-11-20 2:36:00 PM : Starting C:/Program Files/Unity/Hub/Editor/2020.3.13f1/Editor/Data/Tools/ScriptUpdater/APIUpdater.NonObsoleteApiUpdaterDetector.exe
[api-updater (non-obsolete-error-filter)] 
----------------------------------
jit/startup time      : 78.7821ms
moved types parse time: 48ms
candidates parse time : 0ms
C# parse time         : 163ms
candidates check time : 44ms
console write time    : 0ms

[api-updater (non-obsolete-error-filter)] 2021-11-20 2:36:36 PM : Starting C:/Program Files/Unity/Hub/Editor/2020.3.13f1/Editor/Data/Tools/ScriptUpdater/APIUpdater.NonObsoleteApiUpdaterDetector.exe
[api-updater (non-obsolete-error-filter)] 
----------------------------------
jit/startup time      : 70.5593ms
moved types parse time: 54ms
candidates parse time : 1ms
C# parse time         : 173ms
candidates check time : 43ms
console write time    : 0ms

[api-updater (non-obsolete-error-filter)] 2021-11-20 2:42:00 PM : Starting C:/Program Files/Unity/Hub/Editor/2020.3.13f1/Editor/Data/Tools/ScriptUpdater/APIUpdater.NonObsoleteApiUpdaterDetector.exe
[api-updater (non-obsolete-error-filter)] 
----------------------------------
jit/startup time      : 65.8763ms
moved types parse time: 48ms
candidates parse time : 0ms
C# parse time         : 139ms
candidates check time : 32ms
console write time    : 0ms

[api-updater (non-obsolete-error-filter)] 2021-11-20 2:56:46 PM : Starting C:/Program Files/Unity/Hub/Editor/2020.3.13f1/Editor/Data/Tools/ScriptUpdater/APIUpdater.NonObsoleteApiUpdaterDetector.exe
[api-updater (non-obsolete-error-filter)] 
----------------------------------
jit/startup time      : 80.7909ms
moved types parse time: 48ms
candidates parse time : 1ms
C# parse time         : 169ms
candidates check time : 43ms
console write time    : 0ms

[api-updater (non-obsolete-error-filter)] 2021-11-20 2:57:20 PM : Starting C:/Program Files/Unity/Hub/Editor/2020.3.13f1/Editor/Data/Tools/ScriptUpdater/APIUpdater.NonObsoleteApiUpdaterDetector.exe
[api-updater (non-obsolete-error-filter)] 
----------------------------------
jit/startup time      : 62.8581ms
moved types parse time: 47ms
candidates parse time : 1ms
C# parse time         : 157ms
candidates check time : 33ms
console write time    : 0ms

[api-updater (non-obsolete-error-filter)] 2021-11-20 3:02:12 PM : Starting C:/Program Files/Unity/Hub/Editor/2020.3.13f1/Editor/Data/Tools/ScriptUpdater/APIUpdater.NonObsoleteApiUpdaterDetector.exe
[api-updater (non-obsolete-error-filter)] 
----------------------------------
jit/startup time      : 65.8243ms
moved types parse time: 43ms
candidates parse time : 1ms
C# parse time         : 151ms
candidates check time : 35ms
console write time    : 0ms

[api-updater (non-obsolete-error-filter)] 2021-11-20 3:02:13 PM : Starting C:/Program Files/Unity/Hub/Editor/2020.3.13f1/Editor/Data/Tools/ScriptUpdater/APIUpdater.NonObsoleteApiUpdaterDetector.exe
[api-updater (non-obsolete-error-filter)] 
----------------------------------
jit/startup time      : 56.8399ms
moved types parse time: 44ms
candidates parse time : 0ms
C# parse time         : 148ms
candidates check time : 35ms
console write time    : 0ms

[api-updater (non-obsolete-error-filter)] 2021-11-20 3:02:16 PM : Starting C:/Program Files/Unity/Hub/Editor/2020.3.13f1/Editor/Data/Tools/ScriptUpdater/APIUpdater.NonObsoleteApiUpdaterDetector.exe
[api-updater (non-obsolete-error-filter)] 
----------------------------------
jit/startup time      : 56.8461ms
moved types parse time: 46ms
candidates parse time : 1ms
C# parse time         : 153ms
candidates check time : 36ms
console write time    : 0ms

[api-updater (non-obsolete-error-filter)] 2021-11-20 8:43:47 PM : Starting C:/Program Files/Unity/Hub/Editor/2020.3.13f1/Editor/Data/Tools/ScriptUpdater/APIUpdater.NonObsoleteApiUpdaterDetector.exe
[api-updater (non-obsolete-error-filter)] 
----------------------------------
jit/startup time      : 692.6281ms
moved types parse time: 55ms
candidates parse time : 0ms
C# parse time         : 526ms
candidates check time : 44ms
console write time    : 0ms

